multi-pipeline/simulation/qsim/multi-pipeline.msim.vcd
$comment
	File created using the following command:
		vcd file multi-pipeline.msim.vcd -direction
$end
$date
	Mon Mar 17 19:53:56 2025
$end
$version
	ModelSim Version 10.1d
$end
$timescale
	1ps
$end
$scope module mult_with_3_stages_pipeline_vlg_vec_tst $end
$var reg 6 ! A [5:0] $end
$var reg 6 " B [5:0] $end
$var reg 1 # clk $end
$var reg 1 $ reset $end
$var wire 1 % S [11] $end
$var wire 1 & S [10] $end
$var wire 1 ' S [9] $end
$var wire 1 ( S [8] $end
$var wire 1 ) S [7] $end
$var wire 1 * S [6] $end
$var wire 1 + S [5] $end
$var wire 1 , S [4] $end
$var wire 1 - S [3] $end
$var wire 1 . S [2] $end
$var wire 1 / S [1] $end
$var wire 1 0 S [0] $end
$var wire 1 1 sampler $end
$scope module i1 $end
$var wire 1 2 gnd $end
$var wire 1 3 vcc $end
$var wire 1 4 unknown $end
$var tri1 1 5 devclrn $end
$var tri1 1 6 devpor $end
$var tri1 1 7 devoe $end
$var wire 1 8 sum4|S[5]~8_combout $end
$var wire 1 9 pipeline_barrier_2_sum2|reg[2]~8_combout $end
$var wire 1 : sum1|S[2]~2_combout $end
$var wire 1 ; pipeline_barrier_1_sum1|reg[1]~6_combout $end
$var wire 1 < sum1|S[4]~6_combout $end
$var wire 1 = pipeline_barrier_1_sum1|reg[2]~8_combout $end
$var wire 1 > pipeline_barrier_1_sum1|reg[4]~12_combout $end
$var wire 1 ? pipeline_barrier_1_sum1|reg[5]~14_combout $end
$var wire 1 @ PP[1][1]~combout $end
$var wire 1 A PP[1][2]~combout $end
$var wire 1 B PP[1][3]~combout $end
$var wire 1 C PP[2][3]~combout $end
$var wire 1 D PP[0][4]~combout $end
$var wire 1 E PP[4][4]~combout $end
$var wire 1 F PP[0][5]~combout $end
$var wire 1 G PP[2][5]~combout $end
$var wire 1 H PP[3][5]~combout $end
$var wire 1 I PP[5][5]~combout $end
$var wire 1 J PP[2][6]~combout $end
$var wire 1 K PP[4][6]~combout $end
$var wire 1 L PP[5][6]~combout $end
$var wire 1 M PP[2][7]~combout $end
$var wire 1 N PP[4][7]~combout $end
$var wire 1 O PP[5][7]~combout $end
$var wire 1 P PP[3][8]~combout $end
$var wire 1 Q PP[4][8]~combout $end
$var wire 1 R PP[4][9]~combout $end
$var wire 1 S PP[5][9]~combout $end
$var wire 1 T PP[5][10]~combout $end
$var wire 1 U pipeline_barrier_2_pp4|reg[1]~feeder_combout $end
$var wire 1 V pipeline_barrier_2_pp5|reg[1]~feeder_combout $end
$var wire 1 W pipeline_barrier_2_pp5|reg[2]~feeder_combout $end
$var wire 1 X pipeline_barrier_2_pp5|reg[3]~feeder_combout $end
$var wire 1 Y pipeline_barrier_2_pp5|reg[5]~feeder_combout $end
$var wire 1 Z pipeline_barrier_2_pp5|reg[6]~feeder_combout $end
$var wire 1 [ clk~combout $end
$var wire 1 \ clk~clkctrl_outclk $end
$var wire 1 ] reset~combout $end
$var wire 1 ^ reset~clkctrl_outclk $end
$var wire 1 _ PP[0][0]~combout $end
$var wire 1 ` PP[0][1]~combout $end
$var wire 1 a sum1|S[1]~0_combout $end
$var wire 1 b PP[2][2]~combout $end
$var wire 1 c pipeline_barrier_1_S|reg[2]~1_combout $end
$var wire 1 d register_s|reg[2]~feeder_combout $end
$var wire 1 e register_b|reg[3]~feeder_combout $end
$var wire 1 f PP[3][3]~combout $end
$var wire 1 g pipeline_barrier_2_S|reg[3]~1_combout $end
$var wire 1 h register_s|reg[3]~feeder_combout $end
$var wire 1 i register_a|reg[1]~feeder_combout $end
$var wire 1 j PP[3][4]~combout $end
$var wire 1 k pipeline_barrier_2_S|reg[3]~2 $end
$var wire 1 l pipeline_barrier_2_sum2|reg[1]~6_combout $end
$var wire 1 m sum4|S[1]~0_combout $end
$var wire 1 n register_b|reg[4]~feeder_combout $end
$var wire 1 o PP[4][5]~combout $end
$var wire 1 p sum4|S[1]~1 $end
$var wire 1 q sum4|S[2]~2_combout $end
$var wire 1 r register_s|reg[5]~7_combout $end
$var wire 1 s PP[3][6]~combout $end
$var wire 1 t PP[1][5]~combout $end
$var wire 1 u PP[1][4]~combout $end
$var wire 1 v PP[0][3]~combout $end
$var wire 1 w PP[0][2]~combout $end
$var wire 1 x sum1|S[1]~1 $end
$var wire 1 y sum1|S[2]~3 $end
$var wire 1 z sum1|S[3]~5 $end
$var wire 1 { sum1|S[4]~7 $end
$var wire 1 | sum1|S[5]~8_combout $end
$var wire 1 } PP[2][4]~combout $end
$var wire 1 ~ sum1|S[3]~4_combout $end
$var wire 1 !! pipeline_barrier_1_S|reg[2]~2 $end
$var wire 1 "! pipeline_barrier_1_sum1|reg[1]~7 $end
$var wire 1 #! pipeline_barrier_1_sum1|reg[2]~9 $end
$var wire 1 $! pipeline_barrier_1_sum1|reg[3]~10_combout $end
$var wire 1 %! pipeline_barrier_2_sum2|reg[1]~7 $end
$var wire 1 &! pipeline_barrier_2_sum2|reg[2]~9 $end
$var wire 1 '! pipeline_barrier_2_sum2|reg[3]~10_combout $end
$var wire 1 (! sum4|S[2]~3 $end
$var wire 1 )! sum4|S[3]~4_combout $end
$var wire 1 *! register_s|reg[5]~8 $end
$var wire 1 +! register_s|reg[6]~9_combout $end
$var wire 1 ,! PP[3][7]~combout $end
$var wire 1 -! pipeline_barrier_2_sum2|reg[3]~11 $end
$var wire 1 .! pipeline_barrier_2_sum2|reg[4]~12_combout $end
$var wire 1 /! sum4|S[3]~5 $end
$var wire 1 0! sum4|S[4]~6_combout $end
$var wire 1 1! register_s|reg[6]~10 $end
$var wire 1 2! register_s|reg[7]~11_combout $end
$var wire 1 3! PP[5][8]~combout $end
$var wire 1 4! register_s|reg[7]~12 $end
$var wire 1 5! register_s|reg[8]~13_combout $end
$var wire 1 6! sum1|S[5]~9 $end
$var wire 1 7! sum1|S[6]~11 $end
$var wire 1 8! sum1|S[7]~12_combout $end
$var wire 1 9! sum1|S[6]~10_combout $end
$var wire 1 :! pipeline_barrier_1_sum1|reg[3]~11 $end
$var wire 1 ;! pipeline_barrier_1_sum1|reg[4]~13 $end
$var wire 1 <! pipeline_barrier_1_sum1|reg[5]~15 $end
$var wire 1 =! pipeline_barrier_1_sum1|reg[6]~16_combout $end
$var wire 1 >! pipeline_barrier_2_sum2|reg[4]~13 $end
$var wire 1 ?! pipeline_barrier_2_sum2|reg[5]~15 $end
$var wire 1 @! pipeline_barrier_2_sum2|reg[6]~16_combout $end
$var wire 1 A! pipeline_barrier_2_sum2|reg[5]~14_combout $end
$var wire 1 B! sum4|S[4]~7 $end
$var wire 1 C! sum4|S[5]~9 $end
$var wire 1 D! sum4|S[6]~10_combout $end
$var wire 1 E! register_s|reg[8]~14 $end
$var wire 1 F! register_s|reg[9]~15_combout $end
$var wire 1 G! sum4|S[6]~11 $end
$var wire 1 H! sum4|S[7]~12_combout $end
$var wire 1 I! register_s|reg[9]~16 $end
$var wire 1 J! register_s|reg[10]~17_combout $end
$var wire 1 K! register_s|reg[10]~18 $end
$var wire 1 L! register_s|reg[11]~19_combout $end
$var wire 1 M! register_b|reg [5] $end
$var wire 1 N! register_b|reg [4] $end
$var wire 1 O! register_b|reg [3] $end
$var wire 1 P! register_b|reg [2] $end
$var wire 1 Q! register_b|reg [1] $end
$var wire 1 R! register_b|reg [0] $end
$var wire 1 S! pipeline_barrier_1_pp4|reg [7] $end
$var wire 1 T! pipeline_barrier_1_pp4|reg [6] $end
$var wire 1 U! pipeline_barrier_1_pp4|reg [5] $end
$var wire 1 V! pipeline_barrier_1_pp4|reg [4] $end
$var wire 1 W! pipeline_barrier_1_pp4|reg [3] $end
$var wire 1 X! pipeline_barrier_1_pp4|reg [2] $end
$var wire 1 Y! pipeline_barrier_1_pp4|reg [1] $end
$var wire 1 Z! pipeline_barrier_1_pp4|reg [0] $end
$var wire 1 [! pipeline_barrier_1_pp5|reg [7] $end
$var wire 1 \! pipeline_barrier_1_pp5|reg [6] $end
$var wire 1 ]! pipeline_barrier_1_pp5|reg [5] $end
$var wire 1 ^! pipeline_barrier_1_pp5|reg [4] $end
$var wire 1 _! pipeline_barrier_1_pp5|reg [3] $end
$var wire 1 `! pipeline_barrier_1_pp5|reg [2] $end
$var wire 1 a! pipeline_barrier_1_pp5|reg [1] $end
$var wire 1 b! pipeline_barrier_1_pp5|reg [0] $end
$var wire 1 c! pipeline_barrier_1_sum1|reg [7] $end
$var wire 1 d! pipeline_barrier_1_sum1|reg [6] $end
$var wire 1 e! pipeline_barrier_1_sum1|reg [5] $end
$var wire 1 f! pipeline_barrier_1_sum1|reg [4] $end
$var wire 1 g! pipeline_barrier_1_sum1|reg [3] $end
$var wire 1 h! pipeline_barrier_1_sum1|reg [2] $end
$var wire 1 i! pipeline_barrier_1_sum1|reg [1] $end
$var wire 1 j! pipeline_barrier_1_sum1|reg [0] $end
$var wire 1 k! pipeline_barrier_2_pp4|reg [7] $end
$var wire 1 l! pipeline_barrier_2_pp4|reg [6] $end
$var wire 1 m! pipeline_barrier_2_pp4|reg [5] $end
$var wire 1 n! pipeline_barrier_2_pp4|reg [4] $end
$var wire 1 o! pipeline_barrier_2_pp4|reg [3] $end
$var wire 1 p! pipeline_barrier_2_pp4|reg [2] $end
$var wire 1 q! pipeline_barrier_2_pp4|reg [1] $end
$var wire 1 r! pipeline_barrier_2_pp4|reg [0] $end
$var wire 1 s! pipeline_barrier_2_pp5|reg [7] $end
$var wire 1 t! pipeline_barrier_2_pp5|reg [6] $end
$var wire 1 u! pipeline_barrier_2_pp5|reg [5] $end
$var wire 1 v! pipeline_barrier_2_pp5|reg [4] $end
$var wire 1 w! pipeline_barrier_2_pp5|reg [3] $end
$var wire 1 x! pipeline_barrier_2_pp5|reg [2] $end
$var wire 1 y! pipeline_barrier_2_pp5|reg [1] $end
$var wire 1 z! pipeline_barrier_2_pp5|reg [0] $end
$var wire 1 {! pipeline_barrier_2_sum2|reg [7] $end
$var wire 1 |! pipeline_barrier_2_sum2|reg [6] $end
$var wire 1 }! pipeline_barrier_2_sum2|reg [5] $end
$var wire 1 ~! pipeline_barrier_2_sum2|reg [4] $end
$var wire 1 !" pipeline_barrier_2_sum2|reg [3] $end
$var wire 1 "" pipeline_barrier_2_sum2|reg [2] $end
$var wire 1 #" pipeline_barrier_2_sum2|reg [1] $end
$var wire 1 $" pipeline_barrier_2_sum2|reg [0] $end
$var wire 1 %" register_a|reg [5] $end
$var wire 1 &" register_a|reg [4] $end
$var wire 1 '" register_a|reg [3] $end
$var wire 1 (" register_a|reg [2] $end
$var wire 1 )" register_a|reg [1] $end
$var wire 1 *" register_a|reg [0] $end
$var wire 1 +" pipeline_barrier_1_pp3|reg [7] $end
$var wire 1 ," pipeline_barrier_1_pp3|reg [6] $end
$var wire 1 -" pipeline_barrier_1_pp3|reg [5] $end
$var wire 1 ." pipeline_barrier_1_pp3|reg [4] $end
$var wire 1 /" pipeline_barrier_1_pp3|reg [3] $end
$var wire 1 0" pipeline_barrier_1_pp3|reg [2] $end
$var wire 1 1" pipeline_barrier_1_pp3|reg [1] $end
$var wire 1 2" pipeline_barrier_1_pp3|reg [0] $end
$var wire 1 3" pipeline_barrier_1_S|reg [2] $end
$var wire 1 4" pipeline_barrier_1_S|reg [1] $end
$var wire 1 5" pipeline_barrier_1_S|reg [0] $end
$var wire 1 6" pipeline_barrier_2_S|reg [3] $end
$var wire 1 7" pipeline_barrier_2_S|reg [2] $end
$var wire 1 8" pipeline_barrier_2_S|reg [1] $end
$var wire 1 9" pipeline_barrier_2_S|reg [0] $end
$var wire 1 :" register_s|reg [11] $end
$var wire 1 ;" register_s|reg [10] $end
$var wire 1 <" register_s|reg [9] $end
$var wire 1 =" register_s|reg [8] $end
$var wire 1 >" register_s|reg [7] $end
$var wire 1 ?" register_s|reg [6] $end
$var wire 1 @" register_s|reg [5] $end
$var wire 1 A" register_s|reg [4] $end
$var wire 1 B" register_s|reg [3] $end
$var wire 1 C" register_s|reg [2] $end
$var wire 1 D" register_s|reg [1] $end
$var wire 1 E" register_s|reg [0] $end
$var wire 1 F" B~combout [5] $end
$var wire 1 G" B~combout [4] $end
$var wire 1 H" B~combout [3] $end
$var wire 1 I" B~combout [2] $end
$var wire 1 J" B~combout [1] $end
$var wire 1 K" B~combout [0] $end
$var wire 1 L" A~combout [5] $end
$var wire 1 M" A~combout [4] $end
$var wire 1 N" A~combout [3] $end
$var wire 1 O" A~combout [2] $end
$var wire 1 P" A~combout [1] $end
$var wire 1 Q" A~combout [0] $end
$upscope $end
$upscope $end
$enddefinitions $end
#0
$dumpvars
b100011 !
b10010 "
0#
1$
00
0/
0.
0-
0,
0+
0*
0)
0(
0'
0&
0%
x1
02
13
x4
15
16
17
08
09
0:
0;
0<
0=
0>
0?
0@
0A
0B
0C
0D
0E
0F
0G
0H
0I
0J
0K
0L
0M
0N
0O
0P
0Q
0R
0S
0T
0U
0V
0W
0X
0Y
0Z
0[
0\
1]
1^
0_
0`
0a
0b
0c
0d
0e
0f
0g
0h
1i
0j
0k
0l
0m
1n
0o
0p
0q
0r
0s
0t
0u
0v
0w
0x
1y
0z
1{
0|
0}
0~
0!!
1"!
0#!
0$!
1%!
0&!
0'!
1(!
0)!
0*!
0+!
0,!
1-!
0.!
0/!
00!
11!
02!
03!
04!
05!
06!
17!
08!
09!
1:!
0;!
1<!
0=!
0>!
1?!
0@!
0A!
1B!
0C!
0D!
1E!
0F!
1G!
0H!
0I!
0J!
1K!
0L!
0R!
0Q!
0P!
0O!
0N!
0M!
zZ!
0Y!
0X!
0W!
0V!
0U!
0T!
zS!
zb!
0a!
0`!
0_!
0^!
0]!
0\!
z[!
zj!
0i!
0h!
0g!
0f!
0e!
0d!
zc!
zr!
0q!
0p!
0o!
0n!
0m!
0l!
zk!
zz!
0y!
0x!
0w!
0v!
0u!
0t!
zs!
z$"
0#"
0""
0!"
0~!
0}!
0|!
z{!
0*"
0)"
0("
0'"
0&"
0%"
z2"
01"
00"
0/"
0."
0-"
0,"
z+"
05"
04"
03"
09"
08"
07"
06"
0E"
0D"
0C"
0B"
0A"
0@"
0?"
0>"
0="
0<"
0;"
0:"
0K"
1J"
0I"
0H"
1G"
0F"
1Q"
1P"
0O"
0N"
0M"
1L"
$end
#10000
0$
0]
0^
01
#30000
1#
1[
1\
11
1%"
1Q!
1N!
1)"
1*"
19!
1R
1A
1@
1o
1E
1>
1:
1a
1c
#60000
b11 !
b1011 !
b1111 !
b1110 !
b10 "
b11 "
0#
1K"
0G"
0Q"
1O"
1N"
0L"
0[
0\
01
0n
#90000
1#
1[
1\
11
0%"
1("
1'"
1X!
0N!
13"
14"
0*"
1R!
1T!
1Y!
1f!
09!
0R
1w
1B
1v
1u
0o
0E
0@
1`
1U
1'!
0>
0y
0:
1z
1<
1~
0c
0{
0<
1=
1;
1|
0=
1$!
#120000
b11110 !
b11100 !
b1011 "
b111100 !
b110100 !
0#
1H"
0P"
0N"
1M"
1L"
0[
0\
01
1e
0i
#150000
1#
1[
1\
11
1%"
1!"
1g!
1&"
0'"
1p!
0X!
0)"
1O!
17"
03"
18"
0T!
0Y!
1l!
1q!
0f!
1i!
19!
1P
1F
1)!
19
1,!
1t
1D
0v
0u
1q
0`
0A
1H
1d
0U
1D!
1m
0'!
1g
1>
16!
1+!
0~
1r
0a
1y
1:
1F!
07!
09!
0;
0z
1~
1c
18!
0>
1{
1<
1;
1?
0|
1=
0$!
#180000
b101011 "
b110101 !
b111011 "
b111010 "
b110111 !
b10111 !
b11111 !
0#
1Q"
1P"
1N"
0L"
0K"
1G"
1F"
0[
0\
01
1i
1n
#210000
1#
1[
1\
11
1<"
0%"
1M!
1-"
1?"
0!"
0g!
1'"
1@"
0p!
1N!
1A"
1)"
16"
1C"
07"
13"
1D"
04"
1*"
0R!
1,"
1/"
0l!
0q!
1e!
1h!
1""
17!
19!
0P
0F
13!
1S
1O
1L
1I
1>!
0)!
1u
1s
1N
1o
1Q
1K
1E
1j
1A
1h
0d
1f
1@
0w
0D
1A!
0D!
0m
1l
1'
1*
1+
1,
1.
1/
08!
1>
06!
1|
0?!
0A!
0+!
1a
0F!
0?
09!
1$!
1@!
0>
#240000
b111110 "
b110110 "
0#
1I"
0H"
0[
0\
01
0e
#270000
1#
1[
1\
11
0<"
1|!
1^!
0?"
1g!
1."
1X!
0A"
1#"
10"
1B"
11"
0O!
0C"
17"
1P!
08"
14"
1]!
1U!
0,"
1_!
1V!
1`!
1W!
1a!
1Y!
0e!
1D!
1&!
09
1'!
1m
0%!
0l
1k
0g
0,!
0s
0j
0f
0H
1d
1}
1b
1J
1G
1C
1Y
1?!
1A!
1X
1W
1V
1U
0>!
1.!
0'
0*
0,
1-
0.
1F!
0-!
0'!
19
1l
1#!
0=
1!!
0c
1>
0:!
0$!
0"!
0;
0@!
0A!
1>!
0.!
1$!
1;
1;!
0>
1=
1A!
1?
#300000
b10110 "
b11110 !
b110 "
b11100 !
b10 "
0#
0Q"
0P"
0I"
0G"
0F"
0[
0\
01
0i
0n
#330000
1#
1[
1\
11
1<"
1}!
0|!
1v!
0M!
0-"
0."
1p!
0N!
1A"
00"
0)"
06"
01"
1C"
03"
0P!
0D"
18"
0*"
0/"
1u!
1m!
1w!
1n!
1x!
1o!
1y!
1q!
1e!
1C!
0D!
15!
03!
0S
0O
0L
0I
1-!
1'!
0(!
0q
0o
0Q
0N
0K
0E
0l
0C
0A
0h
0k
1g
0}
0b
0J
0G
0@
09
1I!
0F!
12!
10!
1+!
1)!
1*!
0r
1p
0m
1'
1,
1.
0/
1D!
0I!
1F!
0>!
1.!
1/!
0)!
0*!
1r
0;
0:
1%!
1l
0=
0!!
1c
0;!
1>
0$!
0a
1J!
14!
02!
01!
1q
1I!
0F!
0J!
0A!
0B!
00!
11!
0c
0&!
19
1"!
1;
0?
0E!
05!
12!
1*!
0r
1J!
18
04!
0'!
0#!
1=
1F!
01!
0+!
1:!
1$!
14!
02!
0>
15!
#360000
b0 "
b1100 !
b1101 !
b10000 "
b1111 !
0#
1Q"
1P"
0M"
0J"
1G"
0[
0\
01
1i
1n
#390000
1#
1[
1\
11
1;"
0}!
1="
0^!
1~!
0&"
0Q!
0@"
0X!
1N!
0A"
1)"
0B"
16"
07"
1D"
04"
1*"
0]!
0U!
0_!
0V!
0`!
0W!
0a!
0Y!
0e!
08
10!
0t
0u
0B
1o
1N
1K
1E
1h
0d
0Y
0X
0W
0V
0U
0.!
1&
1(
0+
0,
0-
1/
05!
12!
0|
0<
0~
0$!
0=
0;
#420000
b1011 !
b10001 "
b101011 !
b10101 "
b111011 !
b101 "
0#
1K"
1I"
0G"
0O"
1M"
1L"
0[
0\
01
0n
#450000
1#
1[
1\
11
1%"
0="
0v!
1>"
0~!
0g!
0("
1&"
0p!
1X!
0N!
1B"
0C"
1P!
08"
1R!
1V!
1W!
1Y!
0u!
0m!
0w!
0n!
0x!
0o!
0y!
0q!
0h!
0i!
1M
1F
1E!
15!
1B!
09
0K
1J
1D
0q
0o
0N
0E
1b
1G
1C
1v
1`
1_
1U
0F!
0C!
18
02!
11!
1+!
0/!
1)!
0*!
1r
0p
1m
0l
0g
0(
1)
1-
0.
1?
1|
0I!
1F!
08
1>
1<
0r
1c
1$!
1;
1~
1a
0D!
0E!
05!
04!
12!
00!
1(!
1q
0:!
0$!
0J!
1E!
1=
0"!
0;
02!
0)!
1r
1;!
0>
0F!
1#!
0=
0+!
0<!
0?
1$!
1=!
#480000
b110011 !
b111 "
b110010 !
b110110 !
b110 "
b10110 !
b10 "
b110 !
0#
0K"
1J"
0I"
0Q"
1O"
0N"
0M"
0L"
0[
0\
01
#510000
1#
1[
1\
11
0;"
0<"
1d!
0%"
0>"
1g!
1("
0&"
1Q!
0'"
1@"
1p!
0X!
1A"
0#"
06"
13"
0P!
0D"
14"
15"
0*"
0R!
0V!
0W!
0Y!
1n!
1o!
1q!
0""
1A!
0M
0F
19
1B
0J
0D
1A
0v
0G
0h
0b
0C
0_
0`
0U
10!
1)!
0&
0'
0)
1+
1,
0/
1<!
1?
0|
0;!
1>
0<
1:
0$!
0c
1"!
1;
0a
12!
1+!
0=!
1:!
1$!
0?
0#!
1c
0>
0$!
#540000
b1010 "
0#
1H"
0[
0\
01
1e
#570000
1#
1[
1\
11
1}!
0d!
1>"
1?"
0g!
0p!
0B"
1O!
17"
18"
04"
19"
05"
0n!
0o!
0q!
1i!
1""
18
0A!
09
1j
1H
1d
00!
0)!
0m
1g
1)
1*
0-
15!
02!
0+!
#600000
b101010 "
b100 !
b111010 "
b111000 "
b101 !
b1 !
b111001 "
b100001 !
b111101 "
b110001 !
b110101 "
0#
1Q"
0P"
0O"
1M"
1L"
1K"
0J"
1I"
0H"
1G"
1F"
0[
0\
01
0i
0e
1n
#630000
1#
1[
1\
11
0}!
1%"
1="
1M!
0>"
0?"
0("
1&"
0Q!
1N!
0A"
10"
0)"
16"
0O!
1C"
1P!
1D"
08"
1E"
09"
1*"
1R!
1/"
0""
08
1T
1R
1M
1F
1S
1I
0H
0B
1Q
1J
1D
0A
1E
1l
0j
1h
1b
1_
19
0q
1(
0)
0*
0,
1.
1/
10
05!
1?
1|
0~
1>
1<
0:
1!!
0c
0r
1$!
1=
0!!
1c
0;
#660000
b111001 !
b110111 "
b111101 !
b110110 "
b11101 !
0#
0K"
1J"
1O"
1N"
0L"
0[
0\
01
#690000
1#
1[
1\
11
0%"
0="
1g!
1("
1Q!
1'"
0@"
1#"
00"
1B"
0D"
0E"
15"
0R!
1\!
1]!
1T!
1U!
1a!
0/"
1Y!
1e!
1f!
1h!
0i!
1""
0T
0R
0M
0F
1}
1O
1K
1B
1u
1t
1@
13!
1N
1G
1m
0_
0D
1Z
1Y
1V
1U
1.!
1'!
0g
1q
0(
0+
1-
0/
00
0?
1#!
0=
1~
1a
0:!
0$!
1r
1$!
1;
1;!
0>
1?
#720000
b100110 "
b11100 !
b100010 "
b1100 !
b100 !
0#
0Q"
0N"
0M"
0I"
0G"
0[
0\
01
0n
#750000
1#
1[
1\
11
1^!
1~!
1!"
0&"
0'"
1@"
0N!
1A"
06"
0P!
14"
19"
05"
0*"
0\!
0T!
1_!
1V!
1W!
1t!
1u!
1l!
1m!
1y!
1q!
0f!
0h!
1i!
10!
1)!
0t
0S
0Q
0J
03!
0u
0N
0G
0K
0E
0h
0}
0b
0I
0@
0Z
1X
1J!
1F!
1D!
18
1*!
0r
1p
0m
0'!
0l
1g
1+
1,
12!
01!
0|
0;!
1>
0<
0$!
0#!
1=
0c
0a
1I!
0F!
15!
0(!
0q
14!
02!
1:!
0?
0=
0K!
0J!
1/!
0)!
0*!
1r
0E!
05!
0>
1L!
0B!
00!
11!
1F!
1C!
08
04!
0G!
0D!
1E!
1H!
0I!
#780000
b10 "
b110 !
b1010 "
b1000 "
b1001 "
b11001 "
b111 !
b11101 "
b10111 !
0#
1Q"
1P"
1M"
1K"
0J"
1I"
1H"
1G"
0F"
0[
0\
01
1i
1e
1n
#810000
1#
1[
1\
11
1:"
1<"
1v!
0^!
0M!
0!"
0g!
1&"
0Q!
1N!
0A"
0#"
1)"
0B"
16"
1O!
03"
1P!
18"
04"
1E"
09"
1*"
1R!
0]!
0U!
0V!
0W!
0a!
0Y!
0t!
0l!
1w!
1n!
1o!
0e!
15!
0O
09
1,!
1Q
1J
1D
0B
1o
1K
1E
0p
1m
1j
1`
1C
1h
1f
1H
1}
1b
1_
1w
0Y
0V
0U
1K!
1J!
1G!
1D!
12!
10!
0.!
1%
1'
0,
0-
10
1>
1<
0~
1(!
1q
1a
0"!
0;
1=
1c
1:
0L!
0H!
1I!
0F!
14!
02!
1#!
1"!
1;
0/!
1)!
1*!
0r
1!!
0c
0E!
05!
1$!
0=
00!
01!
0"!
0;
1F!
1=
#840000
b10011 !
b111101 "
b111100 "
b10010 !
b111000 "
b10 !
0#
0K"
0I"
1F"
0Q"
0O"
0M"
0[
0\
01
#870000
1#
1[
1\
11
0:"
1;"
0v!
1M!
0~!
1-"
1g!
0("
0&"
0@"
1X!
1A"
10"
1B"
11"
07"
0P!
1D"
08"
14"
0E"
15"
0*"
0R!
1U!
0_!
1W!
1/"
1Y!
0u!
0m!
0n!
0o!
0y!
0q!
1f!
1h!
0i!
0""
1E!
15!
1L
1B!
1.!
1&!
0}
0w
0K
0H
0,!
0Q
0J
0D
0%!
0d
0b
0C
0f
0_
0E
0`
0X
1U
0F!
0C!
18
0)!
0*!
1r
0m
1'!
0q
0%
1&
0+
1,
1-
1/
00
0I!
1F!
08
0-!
0'!
0=
0:
0>
0<
19
0!!
1c
1"!
1;
0a
0D!
0E!
05!
11!
0r
0J!
1E!
15!
1>!
0.!
0c
0#!
0;
04!
12!
0F!
1A!
0$!
05!
#900000
b0 !
b110000 "
b100 !
b110001 "
b101 !
b110101 "
b10101 !
0#
1K"
1I"
0H"
1Q"
0P"
1O"
1M"
0[
0\
01
0e
0i
#930000
1#
1[
1\
11
0;"
0<"
1}!
1>"
0-"
0g!
1("
1&"
1p!
0A"
0)"
01"
0O!
0C"
1P!
0D"
18"
04"
19"
05"
1*"
1R!
0U!
1`!
0W!
0/"
0Y!
1m!
0w!
1o!
1q!
0f!
0h!
1""
1C!
0>!
1.!
0&!
1}
1w
1O
1K
1S
1Q
1J
1D
0(!
0o
0j
0L
0g
1b
1_
1I
1E
1W
0U
02!
1)!
1m
1-!
1'!
1%!
1l
0&
0'
1)
0,
0.
0/
1D!
0A!
0'!
1=
1:
1>
1<
1/!
0)!
1c
1+!
0.!
09
1F!
1!!
0c
1#!
0=
10!
0+!
1;
1$!
12!
#960000
b110101 !
b111101 !
b110111 "
b111111 !
b111111 "
b111110 "
b111110 !
0#
0K"
1J"
1H"
0Q"
1P"
1N"
1L"
0[
0\
01
1e
1i
#990000
1#
1[
1\
11
1<"
0}!
1%"
1g!
1Q!
1'"
0X!
1A"
1#"
00"
1)"
06"
1O!
1D"
08"
1E"
09"
15"
0*"
0R!
1]!
1U!
1_!
0`!
1W!
1a!
1Y!
0m!
1x!
0o!
0q!
1f!
1i!
0""
0C!
19!
1T
1R
1P
1M
19
1u
1t
1B
1A
13!
1s
1N
1G
0l
1o
1j
1L
1C
0h
1,!
1H
0b
0_
0I
0E
0w
0D
1Y
1X
0W
1V
1U
1+!
0/!
1)!
1'!
1g
1(!
1q
1'
1,
1/
10
0D!
1;!
0>
1?
1|
1~
0:!
0$!
0"!
0;
0!!
1c
00!
01!
0+!
0)!
1r
0F!
0<!
0?
1$!
1>
1=
11!
1+!
1=!
02!
